<svg width="24" height="24" viewBox="0 0 24 24" fill="none" xmlns="http://www.w3.org/2000/svg">
<path d="M23 13.86V10.13L20.7 9.74C20.49 8.92 20.17 8.15 19.75 7.44L21.1 5.54L18.46 2.9L16.56 4.25C15.85 3.83 15.08 3.51 14.26 3.3L13.87 1H10.14L9.75001 3.3C8.93001 3.51 8.16001 3.83 7.45001 4.25L5.55001 2.9L2.91001 5.54L4.26001 7.44C3.84001 8.15 3.52001 8.92 3.31001 9.74L1.01001 10.13V13.86L3.31001 14.25C3.52001 15.07 3.84001 15.84 4.26001 16.55L2.91001 18.45L5.55001 21.09L7.45001 19.74C8.16001 20.16 8.93001 20.48 9.75001 20.69L10.14 22.99H13.87L14.26 20.69C15.08 20.48 15.85 20.16 16.56 19.74L18.46 21.09L21.1 18.45L19.75 16.55C20.17 15.84 20.49 15.07 20.7 14.25L23 13.86Z" stroke="white" stroke-miterlimit="10"/>
<path d="M14 16C14.8284 16 15.5 15.3284 15.5 14.5C15.5 13.6716 14.8284 13 14 13C13.1716 13 12.5 13.6716 12.5 14.5C12.5 15.3284 13.1716 16 14 16Z" stroke="white" stroke-miterlimit="10"/>
<path d="M10 11C10.8284 11 11.5 10.3284 11.5 9.5C11.5 8.67157 10.8284 8 10 8C9.17157 8 8.5 8.67157 8.5 9.5C8.5 10.3284 9.17157 11 10 11Z" stroke="white" stroke-miterlimit="10"/>
<path d="M11.2 9.5H18" stroke="white" stroke-miterlimit="10"/>
<path d="M6 9.5H8.34" stroke="white" stroke-miterlimit="10"/>
<path d="M15.5 14.5H18" stroke="white" stroke-miterlimit="10"/>
<path d="M6 14.5H12.82" stroke="white" stroke-miterlimit="10"/>
</svg>
