<svg width="32" height="33" viewBox="0 0 32 33" fill="none" xmlns="http://www.w3.org/2000/svg">
<g clip-path="url(#clip0_1145_7271)">
<path d="M5.04764 2.06201H29.6457C30.0988 2.06201 30.5334 2.24202 30.8538 2.56244C31.1742 2.88285 31.3542 3.31743 31.3542 3.77057V21.9247C31.3542 22.3779 31.1742 22.8125 30.8538 23.1329C30.5334 23.4533 30.0988 23.6333 29.6457 23.6333H2.34723C1.89409 23.6333 1.45951 23.4533 1.1391 23.1329C0.81868 22.8125 0.638672 22.3779 0.638672 21.9247V3.77057C0.638672 3.31743 0.81868 2.88285 1.1391 2.56244C1.45951 2.24202 1.89409 2.06201 2.34723 2.06201" stroke="#171321" stroke-width="1.27982" stroke-linecap="round" stroke-linejoin="round"/>
<path d="M30.9671 19.0933H0.638672" stroke="#171321" stroke-width="1.27982" stroke-linecap="round" stroke-linejoin="round"/>
<path d="M19.9617 25.8986V27.8663H12.0332V23.6333" stroke="#171321" stroke-width="1.27982" stroke-linecap="round" stroke-linejoin="round"/>
<path d="M10.4746 27.876H21.5194C22.0303 27.876 22.5206 28.0776 22.8837 28.4371C23.2467 28.7965 23.4532 29.2848 23.4583 29.7957V30.6404H8.53564V29.7957C8.5407 29.2848 8.74721 28.7965 9.11028 28.4371C9.47336 28.0776 9.96364 27.876 10.4746 27.876V27.876Z" stroke="#171321" stroke-width="1.27982" stroke-linecap="round" stroke-linejoin="round"/>
<path d="M15.9976 15.4233L21.0976 11.6607C21.1662 11.6095 21.2172 11.5384 21.2436 11.457C21.27 11.3756 21.2704 11.288 21.2448 11.2064L19.4883 5.71274C19.4752 5.67206 19.4496 5.63657 19.4151 5.61138C19.3806 5.5862 19.339 5.57263 19.2963 5.57263C19.2536 5.57263 19.212 5.5862 19.1775 5.61138C19.143 5.63657 19.1173 5.67206 19.1043 5.71274L17.9365 9.36022H14.0587L12.8908 5.71274C12.8778 5.67206 12.8522 5.63657 12.8177 5.61138C12.7832 5.5862 12.7416 5.57263 12.6988 5.57263C12.6561 5.57263 12.6145 5.5862 12.58 5.61138C12.5455 5.63657 12.5199 5.67206 12.5069 5.71274L10.7503 11.2064C10.7247 11.288 10.7252 11.3756 10.7515 11.457C10.7779 11.5384 10.8289 11.6095 10.8975 11.6607L15.9976 15.4233Z" stroke="#171321" stroke-width="1.27982" stroke-linecap="round" stroke-linejoin="round"/>
</g>
<defs>
<clipPath id="clip0_1145_7271">
<rect width="31.9954" height="31.9954" fill="white" transform="translate(0 0.359863)"/>
</clipPath>
</defs>
</svg>
