<svg width="27" height="26" viewBox="0 0 27 26" fill="none" xmlns="http://www.w3.org/2000/svg">
<g clip-path="url(#clip0_1095_13204)">
<path d="M24.5972 14.625V20.8542C24.5972 22.6498 23.1428 24.1042 21.3472 24.1042H1.84717V16.7917" stroke="#171321" stroke-width="0.541667" stroke-miterlimit="10"/>
<path d="M1.84717 14.625V1.89583H24.5972V12.4583" stroke="#171321" stroke-width="0.541667" stroke-miterlimit="10"/>
<path d="M1.57629 6.77083H24.868" stroke="#171321" stroke-width="0.541667" stroke-miterlimit="10"/>
<path d="M7.26383 15.9792C8.01172 15.9792 8.618 15.3729 8.618 14.625C8.618 13.8771 8.01172 13.2708 7.26383 13.2708C6.51595 13.2708 5.90967 13.8771 5.90967 14.625C5.90967 15.3729 6.51595 15.9792 7.26383 15.9792Z" stroke="#171321" stroke-width="0.541667" stroke-miterlimit="10"/>
<path d="M19.1805 15.9792C19.9283 15.9792 20.5346 15.3729 20.5346 14.625C20.5346 13.8771 19.9283 13.2708 19.1805 13.2708C18.4326 13.2708 17.8263 13.8771 17.8263 14.625C17.8263 15.3729 18.4326 15.9792 19.1805 15.9792Z" stroke="#171321" stroke-width="0.541667" stroke-miterlimit="10"/>
<path d="M0.222168 14.625H5.90967" stroke="#171321" stroke-width="0.541667" stroke-miterlimit="10"/>
<path d="M18.4275 13.371L15.9305 9.20833L10.5138 20.0417L7.95984 15.7869" stroke="#171321" stroke-width="0.541667" stroke-miterlimit="10"/>
<path d="M20.5347 14.625H26.2222" stroke="#171321" stroke-width="0.541667" stroke-miterlimit="10"/>
</g>
<defs>
<clipPath id="clip0_1095_13204">
<rect width="26" height="26" fill="white" transform="translate(0.222168)"/>
</clipPath>
</defs>
</svg>
