<svg width="32" height="32" viewBox="0 0 32 32" fill="none" xmlns="http://www.w3.org/2000/svg">
<g clip-path="url(#clip0_1145_6440)">
<path d="M1.71434 21.6577C0.607011 18.8702 0.340155 15.8195 0.946715 12.8821C1.55328 9.94466 3.0067 7.24915 5.12759 5.12826C7.24848 3.00737 9.94399 1.55395 12.8814 0.947387C15.8188 0.340826 18.8696 0.607682 21.6571 1.71502" stroke="#171321" stroke-width="1.27982" stroke-linecap="round" stroke-linejoin="round"/>
<path d="M30.02 9.72345C31.309 12.602 31.6806 15.8075 31.0842 18.9046C30.4878 22.0017 28.9523 24.84 26.6864 27.0339C24.4205 29.2278 21.5341 30.6708 18.4194 31.167C15.3047 31.6631 12.1127 31.1883 9.27734 29.8069" stroke="#171321" stroke-width="1.27982" stroke-linecap="round" stroke-linejoin="round"/>
<path d="M5.43896 15.9977C5.44206 13.9117 6.06298 11.8734 7.22337 10.1399C8.38376 8.40648 10.0316 7.05559 11.959 6.25774C13.8864 5.45988 16.0069 5.25082 18.053 5.65692C20.0991 6.06303 21.979 7.06611 23.4556 8.53958C23.8268 8.90839 24.1691 9.30524 24.4794 9.72661" stroke="#171321" stroke-width="1.27982" stroke-linecap="round" stroke-linejoin="round"/>
<path d="M26.5557 15.9977C26.553 18.2204 25.8488 20.3856 24.5436 22.1847C23.2384 23.9838 21.3987 25.3251 19.2866 26.0176C17.1745 26.71 14.8978 26.7183 12.7807 26.0411C10.6637 25.364 8.81431 24.0361 7.49609 22.2464" stroke="#171321" stroke-width="1.27982" stroke-linecap="round" stroke-linejoin="round"/>
<path d="M24.4846 6.91418V9.73157H21.6704" stroke="#171321" stroke-width="1.27982" stroke-linecap="round" stroke-linejoin="round"/>
<path d="M7.49609 25.0574V22.2401H10.3135" stroke="#171321" stroke-width="1.27982" stroke-linecap="round" stroke-linejoin="round"/>
<path d="M15.9968 20.5411L20.5497 17.2328C20.6114 17.1888 20.6573 17.1263 20.6809 17.0544C20.7045 16.9824 20.7045 16.9048 20.6809 16.8329L19.1131 12.0048C19.1018 11.9682 19.0791 11.9362 19.0483 11.9135C19.0175 11.8908 18.9802 11.8785 18.9419 11.8785C18.9037 11.8785 18.8664 11.8908 18.8356 11.9135C18.8048 11.9362 18.7821 11.9682 18.7708 12.0048L17.7309 15.2043H14.2658L13.2228 12.0048C13.2115 11.9682 13.1887 11.9362 13.1579 11.9135C13.1271 11.8908 13.0899 11.8785 13.0516 11.8785C13.0133 11.8785 12.9761 11.8908 12.9453 11.9135C12.9145 11.9362 12.8917 11.9682 12.8804 12.0048L11.3127 16.8329C11.289 16.9048 11.289 16.9824 11.3126 17.0544C11.3362 17.1263 11.3822 17.1888 11.4438 17.2328L15.9968 20.5411Z" stroke="#171321" stroke-width="1.27982" stroke-linecap="round" stroke-linejoin="round"/>
</g>
<defs>
<clipPath id="clip0_1145_6440">
<rect width="31.9954" height="31.9954" fill="white"/>
</clipPath>
</defs>
</svg>
