<svg width="32" height="32" viewBox="0 0 32 32" fill="none" xmlns="http://www.w3.org/2000/svg">
<g clip-path="url(#clip0_1335_386)">
<path d="M16.3072 28.0192C11.9375 28.0282 7.58451 27.4798 3.35361 26.3872C2.39183 26.1373 1.54042 25.5748 0.933321 24.7881C0.326223 24.0015 -0.00210006 23.0353 1.01085e-05 22.0416V9.91996C-0.00141879 8.92906 0.325716 7.96564 0.930218 7.18048C1.53472 6.39532 2.38248 5.83273 3.34081 5.58076C3.50776 5.52306 3.68484 5.50053 3.86091 5.5146C4.03699 5.52867 4.20825 5.57903 4.36391 5.66251C4.51958 5.74599 4.65628 5.86078 4.76541 5.99967C4.87455 6.13856 4.95376 6.29853 4.99806 6.46952C5.04236 6.64052 5.05079 6.81883 5.02281 6.99323C4.99484 7.16764 4.93107 7.33437 4.83552 7.48293C4.73997 7.6315 4.61471 7.75868 4.46761 7.85647C4.32052 7.95426 4.15477 8.02055 3.98081 8.05116C3.57061 8.1616 3.20862 8.40495 2.95152 8.74312C2.69442 9.08129 2.55673 9.49517 2.56001 9.91996V22.0416C2.55784 22.4689 2.69829 22.8847 2.95912 23.2232C3.21995 23.5617 3.58625 23.8035 4.00001 23.9104C11.8232 25.995 20.0516 26.0281 27.8912 24.0064L28.0128 23.968C28.4242 23.8587 28.7876 23.6159 29.046 23.2776C29.3043 22.9393 29.4429 22.5248 29.44 22.0992V9.93916C29.4429 9.51353 29.3043 9.099 29.046 8.76072C28.7876 8.42244 28.4242 8.1796 28.0128 8.07036C21.5176 6.36964 14.7348 6.07075 8.11521 7.19356C7.77658 7.25127 7.4289 7.1721 7.14864 6.97346C6.86839 6.77482 6.67852 6.47299 6.62081 6.13436C6.5631 5.79573 6.64227 5.44805 6.84091 5.16779C7.03955 4.88754 7.34138 4.69767 7.68001 4.63996C14.6589 3.45009 21.8115 3.7643 28.6592 5.56156C29.6186 5.81381 30.4671 6.37735 31.0718 7.16381C31.6764 7.95027 32.0029 8.91516 32 9.90716V22.0992C32.0029 23.0912 31.6764 24.0561 31.0718 24.8425C30.4671 25.629 29.6186 26.1925 28.6592 26.4448C26.8224 27.1552 22.1824 27.7248 21.2288 27.8208C19.84 27.9232 18.1696 28.0192 16.3072 28.0192Z" fill="#7D2BD9"/>
<path d="M13.0752 22.8032C12.8658 22.8024 12.6597 22.7519 12.4736 22.656C12.2682 22.5467 12.0966 22.3834 11.977 22.1839C11.8575 21.9843 11.7946 21.7559 11.7952 21.5232V10.4832C11.7948 10.2507 11.8578 10.0224 11.9774 9.82302C12.097 9.62359 12.2687 9.46051 12.4739 9.35128C12.6792 9.24206 12.9104 9.19082 13.1426 9.20307C13.3748 9.21532 13.5993 9.2906 13.792 9.42082L22.0032 14.944C22.1774 15.0611 22.3202 15.2193 22.4189 15.4045C22.5176 15.5898 22.5692 15.7965 22.5692 16.0064C22.5692 16.2164 22.5176 16.4231 22.4189 16.6083C22.3202 16.7936 22.1774 16.9517 22.0032 17.0688L13.792 22.5856C13.5801 22.728 13.3305 22.8038 13.0752 22.8032ZM14.3552 12.8896V19.1232L18.9952 16L14.3552 12.8896Z" fill="#7D2BD9"/>
</g>
<defs>
<clipPath id="clip0_1335_386">
<rect width="32" height="32" fill="white"/>
</clipPath>
</defs>
</svg>
