<svg width="32" height="32" viewBox="0 0 32 32" fill="none" xmlns="http://www.w3.org/2000/svg">
<g clip-path="url(#clip0_7994_15899)">
<path d="M3.26504 5.35596C3.5498 14.2123 2.45236 17.6998 4.71123 22.3967C6.311 25.721 11.7502 29.8388 15.996 31.3554" stroke="#171321" stroke-width="1.27982" stroke-linecap="round" stroke-linejoin="round"/>
<path d="M5.34448 5.47784C7.35627 5.44237 9.33942 4.99478 11.1714 4.1627C13.0034 3.33063 14.6453 2.13175 15.9957 0.640137C17.5818 2.39248 19.5673 3.73622 21.7837 4.55726C24 5.3783 26.3818 5.65239 28.7267 5.35626C28.442 14.2126 29.5394 17.7001 27.2805 22.397C25.6807 25.7213 20.2415 29.8391 15.9957 31.3557" stroke="#171321" stroke-width="1.27982" stroke-linecap="round" stroke-linejoin="round"/>
<path d="M21.7576 12.9103L20.305 11.4577C20.225 11.3771 20.1298 11.313 20.0249 11.2693C19.92 11.2256 19.8075 11.2031 19.6939 11.2031C19.5802 11.2031 19.4677 11.2256 19.3629 11.2693C19.258 11.313 19.1628 11.3771 19.0828 11.4577L14.6258 15.9019L12.93 14.2029C12.7676 14.0416 12.5479 13.951 12.3189 13.951C12.0899 13.951 11.8703 14.0416 11.7078 14.2029L10.2552 15.6587C10.094 15.8206 10.0035 16.0398 10.0035 16.2682C10.0035 16.4967 10.094 16.7159 10.2552 16.8778L13.6467 20.2693C13.7751 20.3976 13.9275 20.4995 14.0952 20.569C14.2629 20.6384 14.4427 20.6742 14.6242 20.6742C14.8057 20.6742 14.9855 20.6384 15.1532 20.569C15.3209 20.4995 15.4733 20.3976 15.6017 20.2693L21.7576 14.1294C21.8382 14.0496 21.9021 13.9547 21.9458 13.8501C21.9894 13.7455 22.0119 13.6332 22.0119 13.5198C22.0119 13.4065 21.9894 13.2942 21.9458 13.1896C21.9021 13.085 21.8382 12.9901 21.7576 12.9103V12.9103Z" stroke="#171321" stroke-width="1.27982" stroke-linecap="round" stroke-linejoin="round"/>
</g>
<defs>
<clipPath id="clip0_7994_15899">
<rect width="31.9954" height="31.9954" fill="white"/>
</clipPath>
</defs>
</svg>
