<svg width="12" height="10" viewBox="0 0 12 10" fill="none" xmlns="http://www.w3.org/2000/svg">
<path d="M4.02879 9.03345C4.32771 9.03221 4.61416 8.91461 4.82639 8.70602L11.663 1.9316C11.7698 1.82664 11.8545 1.70177 11.9124 1.56418C11.9702 1.42659 12 1.27902 12 1.12997C12 0.980915 11.9702 0.833339 11.9124 0.695751C11.8545 0.558164 11.7698 0.433289 11.663 0.328327C11.4495 0.118037 11.1607 0 10.8597 0C10.5586 0 10.2698 0.118037 10.0564 0.328327L4.02879 6.32369L1.94364 4.25749C1.73015 4.0472 1.44136 3.92916 1.14034 3.92916C0.839318 3.92916 0.550528 4.0472 0.337042 4.25749C0.230245 4.36245 0.145479 4.48733 0.0876313 4.62491C0.029784 4.7625 0 4.91008 0 5.05913C0 5.20818 0.029784 5.35575 0.0876313 5.49334C0.145479 5.63093 0.230245 5.75581 0.337042 5.86077L3.21979 8.71731C3.43668 8.92453 3.72755 9.0382 4.02879 9.03345Z" fill="#171321"/>
</svg>
