<svg width="32" height="32" viewBox="0 0 32 32" fill="none" xmlns="http://www.w3.org/2000/svg">
<g clip-path="url(#clip0_1740_6849)">
<path d="M28.3914 25.0461C27.4496 26.3339 26.3142 27.4682 25.0255 28.4088L22.5362 27.2473C22.2381 27.1106 21.9149 27.0369 21.587 27.0308C21.2591 27.0247 20.9334 27.0863 20.6304 27.2119C20.3273 27.3374 20.0535 27.5241 19.8259 27.7604C19.5984 27.9966 19.422 28.2772 19.3079 28.5847L18.3672 31.17C16.792 31.4164 15.188 31.4164 13.6127 31.17L12.6721 28.5847C12.5576 28.2775 12.381 27.9972 12.1534 27.7612C11.9257 27.5253 11.6519 27.3387 11.349 27.2133C11.0461 27.0878 10.7206 27.026 10.3928 27.0319C10.065 27.0378 9.74194 27.1111 9.44373 27.2473L6.95129 28.4088C5.66426 27.4673 4.53004 26.3331 3.58857 25.0461L4.75001 22.5536C4.88921 22.2558 4.96487 21.9323 4.97219 21.6037C4.97951 21.2751 4.91831 20.9485 4.7925 20.6448C4.6667 20.3411 4.47903 20.067 4.24146 19.8398C4.00388 19.6126 3.7216 19.4374 3.4126 19.3253L0.827372 18.3846C0.58098 16.8094 0.58098 15.2054 0.827372 13.6301L3.4126 12.6894C3.71981 12.5749 4.00014 12.3984 4.2361 12.1707C4.47206 11.9431 4.6586 11.6693 4.78408 11.3664C4.90957 11.0635 4.9713 10.738 4.96544 10.4102C4.95957 10.0824 4.88624 9.75933 4.75001 9.46111L4.43005 8.74442" stroke="#171321" stroke-width="1.27982" stroke-linecap="round" stroke-linejoin="round"/>
<path d="M3.58887 6.97188C4.49401 5.73137 5.57882 4.63255 6.8076 3.71155C6.85366 3.67897 6.90751 3.65915 6.9637 3.65409C7.01989 3.64903 7.07642 3.65892 7.12756 3.68276L9.45682 4.7706C9.75468 4.9093 10.0781 4.98457 10.4066 4.99164C10.7351 4.99872 11.0615 4.93743 11.365 4.81168C11.6686 4.68592 11.9427 4.49845 12.1699 4.26115C12.3972 4.02385 12.5726 3.7419 12.6852 3.43319L13.6258 0.844767C15.2011 0.598375 16.8051 0.598375 18.3803 0.844767L19.321 3.43319C19.4335 3.7419 19.609 4.02385 19.8362 4.26115C20.0635 4.49845 20.3376 4.68592 20.6411 4.81168C20.9447 4.93743 21.271 4.99872 21.5995 4.99164C21.928 4.98457 22.2515 4.9093 22.5493 4.7706L25.0386 3.60597C26.3236 4.54781 27.4547 5.68328 28.3917 6.97188L27.227 9.46112C27.0883 9.75898 27.0131 10.0824 27.006 10.4109C26.9989 10.7394 27.0602 11.0658 27.186 11.3693C27.3117 11.6729 27.4992 11.947 27.7365 12.1742C27.9738 12.4015 28.2558 12.5769 28.5645 12.6895L31.1529 13.6301C31.3992 15.2054 31.3992 16.8094 31.1529 18.3846L28.5645 19.3253C28.2572 19.4398 27.9769 19.6164 27.741 19.844C27.505 20.0716 27.3185 20.3454 27.193 20.6483C27.0675 20.9512 27.0058 21.2767 27.0116 21.6045C27.0175 21.9323 27.0908 22.2554 27.227 22.5536L27.6142 23.3279" stroke="#171321" stroke-width="1.27982" stroke-linecap="round" stroke-linejoin="round"/>
<path d="M11.6616 18.2101L9.44043 15.9857L11.6616 13.7645" stroke="#171321" stroke-width="1.27982" stroke-linecap="round" stroke-linejoin="round"/>
<path d="M20.3477 13.7645L22.5721 15.9857L20.3477 18.2101" stroke="#171321" stroke-width="1.27982" stroke-linecap="round" stroke-linejoin="round"/>
<path d="M17.1644 12.5934L14.8447 19.4245" stroke="#171321" stroke-width="1.27982" stroke-linecap="round" stroke-linejoin="round"/>
</g>
<defs>
<clipPath id="clip0_1740_6849">
<rect width="31.9954" height="31.9954" fill="white"/>
</clipPath>
</defs>
</svg>
