<svg width="32" height="32" viewBox="0 0 32 32" fill="none" xmlns="http://www.w3.org/2000/svg">
<g clip-path="url(#clip0_1145_6765)">
<path d="M26.5851 29.1158H3.03968C2.61611 29.115 2.20033 29.0019 1.83469 28.7881C1.46905 28.5743 1.16661 28.2674 0.958174 27.8986C0.749742 27.5299 0.642766 27.1125 0.648142 26.6889C0.653518 26.2654 0.771054 25.8509 0.988778 25.4875L12.9711 5.65039" stroke="#171321" stroke-width="1.27982" stroke-linecap="round" stroke-linejoin="round"/>
<path d="M13.9463 4.03154C14.1597 3.67851 14.4606 3.38654 14.8199 3.18389C15.1792 2.98124 15.5847 2.87476 15.9972 2.87476C16.4097 2.87476 16.8152 2.98124 17.1745 3.18389C17.5338 3.38654 17.8347 3.67851 18.0481 4.03154L31.0062 25.4876C31.224 25.851 31.3415 26.2655 31.3469 26.6891C31.3522 27.1126 31.2453 27.53 31.0368 27.8987C30.8284 28.2675 30.526 28.5744 30.1603 28.7882C29.7947 29.002 29.3789 29.1151 28.9553 29.1159" stroke="#171321" stroke-width="1.27982" stroke-linecap="round" stroke-linejoin="round"/>
<path d="M20.7744 16.3177L19.4434 14.9739C19.2952 14.826 19.0944 14.7429 18.8851 14.7429C18.6757 14.7429 18.4749 14.826 18.3267 14.9739L14.2633 19.0373L12.7148 17.4855C12.5666 17.3376 12.3658 17.2546 12.1564 17.2546C11.9471 17.2546 11.7463 17.3376 11.5981 17.4855L10.2671 18.8165C10.1192 18.9647 10.0361 19.1655 10.0361 19.3749C10.0361 19.5842 10.1192 19.785 10.2671 19.9332L13.3707 23.0367C13.6097 23.2703 13.9307 23.401 14.2649 23.401C14.5991 23.401 14.9201 23.2703 15.1592 23.0367L20.7744 17.4183C20.9175 17.2709 20.9975 17.0735 20.9975 16.868C20.9975 16.6626 20.9175 16.4652 20.7744 16.3177Z" stroke="#171321" stroke-width="1.27982" stroke-linecap="round" stroke-linejoin="round"/>
</g>
<defs>
<clipPath id="clip0_1145_6765">
<rect width="31.9954" height="31.9954" fill="white"/>
</clipPath>
</defs>
</svg>
