<svg width="24" height="24" viewBox="0 0 24 24" fill="none" xmlns="http://www.w3.org/2000/svg">
<path d="M5.08999 9.46999L7.60999 12L3.61999 15.99L5.61999 17.98L11.6 12L5.61999 6.01999L3.26999 8.36999" stroke="#171321" stroke-miterlimit="10"/>
<path d="M16.5 16.5L21 12L15.02 6.01999L13.02 8.00999L17.01 12L13.02 15.99L15.37 18.34" stroke="#171321" stroke-miterlimit="10"/>
<path d="M5.5 22.5H0.5V17.5" stroke="#171321" stroke-miterlimit="10"/>
<path d="M18.5 1.5H23.5V6.5" stroke="#171321" stroke-miterlimit="10"/>
<path d="M23.5 17.5V19.5C23.5 21.16 22.16 22.5 20.5 22.5H18.5" stroke="#171321" stroke-miterlimit="10"/>
<path d="M0.5 6.5V1.5H5.5" stroke="#171321" stroke-miterlimit="10"/>
</svg>
