<svg width="93" height="40" viewBox="0 0 93 40" fill="none" xmlns="http://www.w3.org/2000/svg">
<path fill-rule="evenodd" clip-rule="evenodd" d="M85.5241 18.5697H81.9199V3.50715H85.3344V5.18077C85.7771 4.1766 86.852 3.23937 88.1799 3.17243C90.5194 3.03854 92.1002 4.51132 92.1002 7.65773V18.5697H88.3696V7.18912C88.3696 5.85022 88.3696 4.71216 87.5475 4.51132C87.2314 4.37743 86.7255 4.51132 86.2829 4.84605C85.7771 5.38161 85.5241 6.118 85.5241 7.18912C85.5241 7.4569 85.5241 18.5697 85.5241 18.5697Z" fill="#171321"/>
<path fill-rule="evenodd" clip-rule="evenodd" d="M23.9923 4.49514C23.1703 3.69181 22.0954 3.15625 20.8307 3.15625C19.5661 3.15625 18.6176 3.69181 17.6692 4.49514C16.1516 5.83404 15.2031 8.31099 15.2031 11.0557C15.2031 13.8674 16.1516 16.2105 17.6692 17.6163C18.6176 18.4196 19.5661 18.9552 20.8307 18.9552C22.0954 18.9552 23.1703 18.4196 23.9923 17.6163C25.5731 16.2774 26.4584 13.8674 26.4584 11.0557C26.4584 8.31099 25.5731 5.83404 23.9923 4.49514ZM22.6012 11.0557C22.6012 13.8674 22.6012 16.1435 22.1586 17.2816C21.8425 17.8171 21.5263 18.1519 20.7675 18.1519C20.1352 18.1519 19.6926 17.8171 19.5029 17.2816C18.997 16.1435 18.997 13.9343 18.997 11.0557C18.997 8.37794 18.997 5.96793 19.5029 4.82987C19.6926 4.29431 20.1352 3.95959 20.7675 3.95959C21.5263 3.95959 21.8425 4.29431 22.1586 4.82987C22.7277 5.96793 22.6012 8.31099 22.6012 11.0557Z" fill="#171321"/>
<path fill-rule="evenodd" clip-rule="evenodd" d="M61.1103 24.3404V28.424H60.4147C59.9721 26.6835 59.3398 25.2107 57.6325 25.1437C56.5576 25.0098 55.6091 25.6793 55.4826 26.7504C55.3562 27.7546 55.6723 28.6918 57.6325 29.7629C60.0985 31.2357 61.9955 31.9052 61.9955 34.9177C61.9955 38.198 59.3398 39.7377 57.1267 39.7377C56.1782 39.7377 52.8901 39.7377 52.8901 39.7377V34.1143H53.6489C54.1548 37.0599 55.04 38.8674 57.0634 38.9344C58.3281 38.9344 59.2765 38.131 59.2765 36.6582C59.2765 35.1855 58.3913 34.3821 56.3679 33.1102C54.1548 31.6374 52.7637 30.7671 52.7637 28.6918C52.7637 26.014 54.5974 24.2734 57.4428 24.2734C58.3913 24.3404 61.1103 24.3404 61.1103 24.3404Z" fill="#171321"/>
<path fill-rule="evenodd" clip-rule="evenodd" d="M65.8016 18.5701V7.65819C65.8016 4.5118 64.2208 3.03902 61.8812 3.17291C60.3004 3.3068 59.3519 4.44486 58.9093 5.31513C58.4035 3.70847 57.2021 3.03902 55.4948 3.17291C54.1037 3.3068 53.0288 4.17708 52.6494 5.18124V3.50763H49.3613V18.5701H52.9655C52.9655 18.5701 52.9655 7.5243 52.9655 7.18958C52.9655 6.05152 53.092 5.38208 53.7243 4.84652C54.1669 4.5118 54.5463 4.37791 54.9257 4.5118C55.7477 4.71263 55.7477 5.85069 55.7477 7.18958V18.5701H59.3519V7.12264C59.3519 6.11847 59.5416 5.44902 60.1107 4.84652C60.5533 4.5118 60.9327 4.37791 61.3121 4.5118C62.1341 4.71263 62.2606 5.85069 62.2606 7.18958V18.5701H65.8016Z" fill="#171321"/>
<path fill-rule="evenodd" clip-rule="evenodd" d="M28.9297 0.335938H32.6604V18.6118H28.9297V0.335938Z" fill="#171321"/>
<path fill-rule="evenodd" clip-rule="evenodd" d="M45.8071 18.6118V0.335938H42.0764V4.62038C41.7603 3.81705 41.0015 3.28149 39.9266 3.28149C37.3341 3.28149 35.1842 6.22705 35.0577 10.7123C34.9312 13.7248 35.8797 18.8126 39.6104 18.8126C41.128 18.8126 41.95 17.9423 42.2661 17.139V18.6118H45.8071ZM41.4441 4.75427C42.2029 5.89233 42.2029 8.57011 42.2029 10.7123C42.2029 12.9884 42.3294 15.8671 41.4441 17.139C41.128 17.6076 40.8118 17.8084 40.2427 17.8084C39.4839 17.8084 39.0413 16.9382 38.8516 15.4654C38.7252 14.1265 38.7252 12.4529 38.7252 10.6454C38.7252 7.63288 38.9148 4.21872 40.3059 4.21872C40.9383 4.15177 41.128 4.41955 41.4441 4.75427Z" fill="#171321"/>
<path fill-rule="evenodd" clip-rule="evenodd" d="M76.9003 3.95622C77.8488 4.49177 78.4811 5.42899 78.4811 7.43733V18.6171H75.0033V16.9434C74.5607 18.2154 73.4225 18.9518 71.8418 18.9518C70.5771 18.9518 68.3008 18.2823 68.3008 14.8012C68.3008 11.5209 70.3242 10.8515 72.5373 9.84733C74.5607 8.91011 74.7504 8.77622 74.7504 7.90594C74.7504 7.10261 74.7504 6.43316 74.7504 5.42899C74.7504 4.42483 74.2446 3.95622 73.1696 3.95622C72.727 4.0901 71.9682 4.29094 71.9682 4.82649C71.8418 5.49594 72.6005 5.49594 72.727 6.50011C72.8535 8.10677 71.6521 8.64233 70.5771 8.50844C69.8183 8.50844 68.9963 8.03983 68.8699 6.83483C68.7434 4.82649 70.8933 3.08594 73.8652 3.08594C75.3195 3.15288 76.1415 3.4876 76.9003 3.95622ZM74.7504 9.57955L73.6122 10.3829C72.4108 11.1862 72.2211 12.1904 72.0947 13.3284C71.9682 14.1987 71.9682 15.0021 72.0947 16.3409C72.2211 17.6129 72.9167 17.8137 73.6122 17.6129C74.371 17.2782 74.8136 15.8054 74.8136 14.2657C74.7504 14.1987 74.7504 10.1151 74.7504 9.57955Z" fill="#171321"/>
<path fill-rule="evenodd" clip-rule="evenodd" d="M24.2265 25.0054C25.1749 25.6748 25.6808 26.4782 25.6808 28.4865V39.7333H22.3295V38.0597C21.8869 39.1977 20.7487 40.0011 19.1679 40.0011C17.7768 40.0011 15.627 39.4655 15.627 35.9174C15.627 32.6371 17.6504 31.9677 19.8002 30.9635C21.8869 29.9593 22.0766 29.8254 22.0766 29.089C22.0766 28.2857 22.0766 27.6162 22.0766 26.6121C22.0766 25.474 21.5707 25.0054 20.4958 25.1393C20.0532 25.1393 19.2944 25.3401 19.2944 25.9426C19.1679 26.746 19.9267 26.746 20.0532 27.7501C20.1796 29.2229 18.9782 29.7585 17.9033 29.7585C17.1445 29.6246 16.3225 29.2229 16.196 27.951C16.1328 26.0096 18.2827 24.3359 21.2546 24.3359C22.6457 24.3359 23.4677 24.5368 24.2265 25.0054ZM22.0766 30.6288L20.8752 31.4321C19.737 32.2354 19.5473 33.2396 19.4209 34.3777C19.2944 35.248 19.2944 36.1852 19.4209 37.3902C19.4209 38.7291 20.1796 38.9969 20.812 38.6622C21.634 38.3274 22.0766 36.9885 22.0766 35.3149C22.0766 35.248 22.0766 31.2313 22.0766 30.6288Z" fill="#171321"/>
<path fill-rule="evenodd" clip-rule="evenodd" d="M49.936 28.8371C49.936 25.6907 48.3552 24.084 46.0157 24.3518C44.8143 24.4857 43.8658 25.0213 43.3599 25.8246V21.4062H39.7557V31.7827C39.7557 35.5985 37.2265 39.2136 34.634 39.0797C32.8002 39.0797 32.4209 37.6069 32.1679 36.0672C31.8518 33.791 31.8518 31.1802 32.1047 28.3685C32.2944 26.561 32.737 25.0882 34.0016 25.0882C34.9501 25.0882 35.0766 25.7577 34.634 26.2263C34.1913 26.8288 33.559 27.3643 33.8752 28.6363C34.1913 29.9752 36.2148 30.243 37.1632 29.1718C37.922 28.3016 37.7955 26.8288 37.2897 25.8916C36.6574 24.7535 35.5824 24.2849 34.0016 24.2849C31.9782 24.2849 28.1211 26.2263 28.1211 32.2513C28.1211 38.8119 32.0415 39.883 34.3178 39.883C36.8471 39.883 39.1234 37.5399 39.7557 35.5985V39.6822H43.3599V28.3016C43.3599 27.1635 43.5496 26.4941 44.1187 25.9585C44.5613 25.6238 45.0672 25.4899 45.3834 25.6238C46.2054 25.8246 46.2054 26.9627 46.2054 28.3016V39.6822H49.936V28.8371Z" fill="#171321"/>
<path fill-rule="evenodd" clip-rule="evenodd" d="M12.7173 0V6.4267H11.9586C11.3262 3.28029 9.93515 0.870282 8.0382 0.803337C6.77357 0.669448 6.01479 1.47278 5.38247 2.61085C4.75016 3.94974 4.434 6.76142 4.434 10.1756C4.434 13.322 4.56046 15.6651 4.87662 17.4056C5.06631 18.209 5.6354 19.414 7.0265 19.414C7.78528 19.414 8.29113 19.2131 8.60729 18.7445C9.11314 18.0751 9.2396 16.7362 9.2396 15.799C9.2396 14.3262 9.2396 13.8576 9.2396 12.7865C9.2396 11.7153 8.92345 10.912 8.35436 10.5773C7.91174 10.3764 7.27942 10.3764 6.96326 10.2425V9.43921H12.907V25.5729H12.1483C11.8321 24.301 11.6424 23.4307 11.0733 22.4265C10.5675 21.4223 9.61899 20.2843 8.0382 20.2843C6.33095 20.1504 5.06631 21.2884 5.06631 22.9621C5.06631 25.2382 6.33095 25.7737 8.67052 27.1126C10.8836 28.4515 13.7923 29.5896 13.7923 33.5393C13.7923 37.3552 10.6939 39.7652 7.21619 39.7652C6.45741 39.7652 1.58857 39.7652 1.58857 39.7652V31.9996H2.34735C3.29583 37.8907 5.6354 38.8949 7.21619 38.8949C9.2396 38.8949 10.1881 37.556 10.1881 35.6146C10.0616 33.1377 8.48082 32.2674 6.26772 30.9954C3.10613 29.054 1.58857 28.1837 1.58857 25.0373C1.71504 22.3596 3.73845 20.619 5.95156 19.9495C1.27241 19.414 -0.118683 14.8617 0.00778034 10.0417C0.00778034 5.22169 2.66351 0 7.91174 0C10.1881 0 12.7173 0 12.7173 0Z" fill="#171321"/>
</svg>
